{
    "/gotowebinar/*": {
        "target": "http://10.71.12.47:8080",
        "secure": false,
        "logLevel": "debug"
    },
    "/programs/*": {
        "target": "http://10.71.12.47:9090",
        "secure": false,
        "logLevel": "debug"
    },
    "/notifications/*": {
        "target": "http://10.71.12.47:9091",
        "secure": false,
        "logLevel": "debug"
    }
}